…
From the result, we can state that all flights are to or from Illinois
airports

**3. Drop flights to and from Midway and O’Hare. How many flights are
left?**

There are 12240 flights left when excluding Midway and O’Hare airports
from origin and departure.

    il_flights %>%
      filter(!ORIGIN %in% c("ORD","MDW"), !DEST %in% c("ORD","MDW"))

    ## # A tibble: 12,240 × 31
    ##     YEAR MONTH DAY_OF_MONTH OP_UNIQUE_CARRIER ORIGIN_AIRPORT_ID ORIGIN_AIRPORT_…
    ##    <dbl> <dbl>        <dbl> <chr>                         <dbl>            <dbl>
    ##  1  2016    11            1 DL                            10397          1039705
    ##  2  2016    11            1 DL                            10685          1068502
    ##  3  2016    11            1 DL                            10397          1039705
    ##  4  2016    11            2 DL                            10397          1039705
    ##  5  2016    11            2 DL                            10685          1068502
    ##  6  2016    11            2 DL                            10397          1039705
    ##  7  2016    11            2 DL                            10685          1068502
    ##  8  2016    11            3 DL                            10685          1068502
    ##  9  2016    11            3 DL                            10397          1039705
    ## 10  2016    11            4 DL                            10685          1068502
    ## # … with 12,230 more rows, and 25 more variables: ORIGIN_CITY_MARKET_ID <dbl>,
    ## #   ORIGIN <chr>, ORIGIN_CITY_NAME <chr>, ORIGIN_STATE_ABR <chr>,
    ## #   DEST_AIRPORT_ID <dbl>, DEST_AIRPORT_SEQ_ID <dbl>,
    ## #   DEST_CITY_MARKET_ID <dbl>, DEST <chr>, DEST_CITY_NAME <chr>,
    ## #   DEST_STATE_ABR <chr>, DEP_TIME <chr>, DEP_DELAY <dbl>, DEP_DELAY_NEW <dbl>,
    ## #   ARR_TIME <chr>, ARR_DELAY <dbl>, ARR_DELAY_NEW <dbl>, CANCELLED <dbl>,
    ## #   AIR_TIME <dbl>, DISTANCE <dbl>, CARRIER_DELAY <dbl>, WEATHER_DELAY <dbl>, …
…
-   According to our data set, it should be jointly 652,176 total
    flights to or from Midway and O’Hare (excluding canceled flights, if
    If we did not include them we would have a total of 663,582).

<!-- -->

    il_flights %>%
      filter(ORIGIN %in% c("ORD", "MDW") | DEST %in% c("ORD", "MDW")) %>%
      filter(CANCELLED == 0)

    ## # A tibble: 652,176 × 31
    ##     YEAR MONTH DAY_OF_MONTH OP_UNIQUE_CARRIER ORIGIN_AIRPORT_ID ORIGIN_AIRPORT_…
    ##    <dbl> <dbl>        <dbl> <chr>                         <dbl>            <dbl>
    ##  1  2016    11            1 AA                            13930          1393004
    ##  2  2016    11            2 AA                            13930          1393004
    ##  3  2016    11            3 AA                            13930          1393004
    ##  4  2016    11            4 AA                            13930          1393004
    ##  5  2016    11            5 AA                            13930          1393004
    ##  6  2016    11            6 AA                            13930          1393004
    ##  7  2016    11            7 AA                            13930          1393004
    ##  8  2016    11            8 AA                            13930          1393004
    ##  9  2016    11            9 AA                            13930          1393004
    ## 10  2016    11           10 AA                            13930          1393004
    ## # … with 652,166 more rows, and 25 more variables: ORIGIN_CITY_MARKET_ID <dbl>,
    ## #   ORIGIN <chr>, ORIGIN_CITY_NAME <chr>, ORIGIN_STATE_ABR <chr>,
    ## #   DEST_AIRPORT_ID <dbl>, DEST_AIRPORT_SEQ_ID <dbl>,
    ## #   DEST_CITY_MARKET_ID <dbl>, DEST <chr>, DEST_CITY_NAME <chr>,
    ## #   DEST_STATE_ABR <chr>, DEP_TIME <chr>, DEP_DELAY <dbl>, DEP_DELAY_NEW <dbl>,
    ## #   ARR_TIME <chr>, ARR_DELAY <dbl>, ARR_DELAY_NEW <dbl>, CANCELLED <dbl>,
    ## #   AIR_TIME <dbl>, DISTANCE <dbl>, CARRIER_DELAY <dbl>, WEATHER_DELAY <dbl>, …
…
2.  Wikipedia: Estimates that in 2016 there were 867,635 aircraft
    operations at O’Hare airport.
    <https://en.wikipedia.org/wiki/O%27Hare_International_Airport>

-   However, from the BTS dataset we obtain a total of 479,711 flights
    to or from O’Hare Airport (we are excluding the canceled flights):

<!-- -->

    il_flights %>%
      filter(ORIGIN %in% "ORD" | DEST %in% "ORD") %>%
      filter(CANCELLED == 0)

    ## # A tibble: 479,711 × 31
    ##     YEAR MONTH DAY_OF_MONTH OP_UNIQUE_CARRIER ORIGIN_AIRPORT_ID ORIGIN_AIRPORT_…
    ##    <dbl> <dbl>        <dbl> <chr>                         <dbl>            <dbl>
    ##  1  2016    11            1 AA                            13930          1393004
    ##  2  2016    11            2 AA                            13930          1393004
    ##  3  2016    11            3 AA                            13930          1393004
    ##  4  2016    11            4 AA                            13930          1393004
    ##  5  2016    11            5 AA                            13930          1393004
    ##  6  2016    11            6 AA                            13930          1393004
    ##  7  2016    11            7 AA                            13930          1393004
    ##  8  2016    11            8 AA                            13930          1393004
    ##  9  2016    11            9 AA                            13930          1393004
    ## 10  2016    11           10 AA                            13930          1393004
    ## # … with 479,701 more rows, and 25 more variables: ORIGIN_CITY_MARKET_ID <dbl>,
    ## #   ORIGIN <chr>, ORIGIN_CITY_NAME <chr>, ORIGIN_STATE_ABR <chr>,
    ## #   DEST_AIRPORT_ID <dbl>, DEST_AIRPORT_SEQ_ID <dbl>,
    ## #   DEST_CITY_MARKET_ID <dbl>, DEST <chr>, DEST_CITY_NAME <chr>,
    ## #   DEST_STATE_ABR <chr>, DEP_TIME <chr>, DEP_DELAY <dbl>, DEP_DELAY_NEW <dbl>,
    ## #   ARR_TIME <chr>, ARR_DELAY <dbl>, ARR_DELAY_NEW <dbl>, CANCELLED <dbl>,
    ## #   AIR_TIME <dbl>, DISTANCE <dbl>, CARRIER_DELAY <dbl>, WEATHER_DELAY <dbl>, …
…
1.  Wikipedia: Estimates that in 2016 there were 253,046 aircraft
    operations at Midway Airport.

Source: <https://es.wikipedia.org/wiki/Aeropuerto_Internacional_Midway>

-   However, from the BTS dataset we obtain a total of 172,465 flights
    to or from Midway Airport (we are excluding the canceled flights):

<!-- -->

    il_flights %>%
      filter(ORIGIN %in% "MDW" | DEST %in% "MDW") %>%
      filter(CANCELLED == 0)

    ## # A tibble: 172,465 × 31
    ##     YEAR MONTH DAY_OF_MONTH OP_UNIQUE_CARRIER ORIGIN_AIRPORT_ID ORIGIN_AIRPORT_…
    ##    <dbl> <dbl>        <dbl> <chr>                         <dbl>            <dbl>
    ##  1  2016    11            1 DL                            10397          1039705
    ##  2  2016    11            1 DL                            10397          1039705
    ##  3  2016    11            1 DL                            13232          1323202
    ##  4  2016    11            1 DL                            10397          1039705
    ##  5  2016    11            1 DL                            13232          1323202
    ##  6  2016    11            1 DL                            13232          1323202
    ##  7  2016    11            1 DL                            13232          1323202
    ##  8  2016    11            1 DL                            10397          1039705
    ##  9  2016    11            1 DL                            13232          1323202
    ## 10  2016    11            1 DL                            10397          1039705
    ## # … with 172,455 more rows, and 25 more variables: ORIGIN_CITY_MARKET_ID <dbl>,
    ## #   ORIGIN <chr>, ORIGIN_CITY_NAME <chr>, ORIGIN_STATE_ABR <chr>,
    ## #   DEST_AIRPORT_ID <dbl>, DEST_AIRPORT_SEQ_ID <dbl>,
    ## #   DEST_CITY_MARKET_ID <dbl>, DEST <chr>, DEST_CITY_NAME <chr>,
    ## #   DEST_STATE_ABR <chr>, DEP_TIME <chr>, DEP_DELAY <dbl>, DEP_DELAY_NEW <dbl>,
    ## #   ARR_TIME <chr>, ARR_DELAY <dbl>, ARR_DELAY_NEW <dbl>, CANCELLED <dbl>,
    ## #   AIR_TIME <dbl>, DISTANCE <dbl>, CARRIER_DELAY <dbl>, WEATHER_DELAY <dbl>, …
…
